\relax 
\@writefile{toc}{\contentsline {section}{\numberline {1}Colecciones con enumerate}{1}\protected@file@percent }
\@writefile{toc}{\contentsline {section}{\numberline {2}Colecciones con itemize (sin numerar)}{2}\protected@file@percent }
