\relax 
\@writefile{toc}{\contentsline {section}{\numberline {1}Colores en textos}{1}\protected@file@percent }
\@writefile{toc}{\contentsline {section}{\numberline {2}Colores en RGB}{1}\protected@file@percent }
\@writefile{toc}{\contentsline {section}{\numberline {3}Colores en CMYK}{1}\protected@file@percent }
\@writefile{toc}{\contentsline {section}{\numberline {4}Colores en Gray}{1}\protected@file@percent }
\@writefile{toc}{\contentsline {section}{\numberline {5}Crear un nuevo color}{2}\protected@file@percent }
\@writefile{toc}{\contentsline {section}{\numberline {6}Cajas de colores}{2}\protected@file@percent }
\@writefile{toc}{\contentsline {section}{\numberline {7}Colores en textos}{2}\protected@file@percent }
