\relax 
\@writefile{toc}{\contentsline {section}{\numberline {1}Espacios verticales}{1}\protected@file@percent }
\@writefile{toc}{\contentsline {section}{\numberline {2}Parrafos}{2}\protected@file@percent }
\@writefile{toc}{\contentsline {subsection}{\numberline {2.1}Centradp}{2}\protected@file@percent }
\@writefile{toc}{\contentsline {subsection}{\numberline {2.2}Derecha}{2}\protected@file@percent }
\@writefile{toc}{\contentsline {subsection}{\numberline {2.3}IZquierda}{2}\protected@file@percent }
\@writefile{toc}{\contentsline {subsection}{\numberline {2.4}Citas}{2}\protected@file@percent }
