\contentsline {part}{I\hspace {1em}primera perate}{3}%
\contentsline {chapter}{\numberline {1}hola}{5}%
\contentsline {section}{\numberline {1.1}Primer capitulo}{5}%
\contentsline {section}{\numberline {1.2}Primer capitulo}{5}%
\contentsline {chapter}{\numberline {2}El primer captilo}{7}%
\contentsline {section}{\numberline {2.1}Primer caoitulo - seccion segunda}{7}%
\contentsline {subsection}{\numberline {2.1.1}Primer capitulo - seccion segunda - subsecc1}{7}%
\contentsline {paragraph}{}{7}%
\contentsline {paragraph}{}{7}%
\contentsline {subparagraph}{}{7}%
