\relax 
\@writefile{toc}{\contentsline {part}{I\hspace  {1em}primera perate}{3}\protected@file@percent }
\@writefile{toc}{\contentsline {chapter}{\numberline {1}hola}{5}\protected@file@percent }
\@writefile{lof}{\addvspace {10\p@ }}
\@writefile{lot}{\addvspace {10\p@ }}
\@writefile{toc}{\contentsline {section}{\numberline {1.1}Primer capitulo}{5}\protected@file@percent }
\@writefile{toc}{\contentsline {section}{\numberline {1.2}Primer capitulo}{5}\protected@file@percent }
\@writefile{toc}{\contentsline {chapter}{\numberline {2}El primer captilo}{7}\protected@file@percent }
\@writefile{lof}{\addvspace {10\p@ }}
\@writefile{lot}{\addvspace {10\p@ }}
\@writefile{toc}{\contentsline {section}{\numberline {2.1}Primer caoitulo - seccion segunda}{7}\protected@file@percent }
\@writefile{toc}{\contentsline {subsection}{\numberline {2.1.1}Primer capitulo - seccion segunda - subsecc1}{7}\protected@file@percent }
\@writefile{toc}{\contentsline {paragraph}{}{7}\protected@file@percent }
\@writefile{toc}{\contentsline {paragraph}{}{7}\protected@file@percent }
\@writefile{toc}{\contentsline {subparagraph}{}{7}\protected@file@percent }
