\relax 
\catcode `"\active 
\catcode `<\active 
\catcode `>\active 
\@nameuse{es@quoting}
\babel@aux{spanish}{}
\@writefile{toc}{\contentsline {section}{\numberline {1}Ejercicios de repaso}{2}}
\@writefile{toc}{\contentsline {subsection}{\numberline {1.1}Tablas}{2}}
\@writefile{toc}{\contentsline {subsection}{\numberline {1.2}formulas raras}{2}}
