\babel@toc {spanish}{}
\contentsline {section}{\numberline {1}Ejercicios de repaso}{2}
\contentsline {subsection}{\numberline {1.1}Tablas}{2}
\contentsline {subsection}{\numberline {1.2}formulas raras}{2}
