\relax 
\@writefile{toc}{\contentsline {section}{\numberline {1}TAMAÑOS DE LETRA}{1}\protected@file@percent }
\@writefile{toc}{\contentsline {section}{\numberline {2}Tipos de letra}{1}\protected@file@percent }
