\relax 
\catcode `"\active 
\catcode `<\active 
\catcode `>\active 
\@nameuse{es@quoting}
\babel@aux{spanish}{}
\@writefile{toc}{\contentsline {section}{\numberline {1}Ejercicio 1}{1}}
\@writefile{toc}{\contentsline {subsection}{\numberline {1.1}Combinando elementos}{1}}
\@writefile{toc}{\contentsline {subsection}{\numberline {1.2}Apilando varios niveles}{1}}
\@writefile{toc}{\contentsline {section}{\numberline {2}Ejercicio 2}{1}}
\@writefile{toc}{\contentsline {subsection}{\numberline {2.1}Temas contenidos}{1}}
